Sales-Visualization.R
…
#question 3
rt_data <- SalesData%>%
  group_by(Region,Tier)%>%
  summarise(TotalSales2015 = sum(Sales2015),TotalSales2016 = sum(Sales2016))

## `summarise()` has grouped output by 'Region'. You can override using the `.groups` argument.

data_long1 <- gather(rt_data,key = Year,value = Sales,-c(Region,Tier))
data_long1

## # A tibble: 24 x 4
## # Groups:   Region [3]
##    Region  Tier  Year              Sales
##    <chr>   <chr> <chr>             <dbl>
##  1 Central High  TotalSales2015 4798698.
##  2 Central Low   TotalSales2015  943440.
##  3 Central Med   TotalSales2015 2068226.
##  4 Central Out   TotalSales2015   81365.
##  5 East    High  TotalSales2015 6102946.
##  6 East    Low   TotalSales2015  901666.
##  7 East    Med   TotalSales2015 2470998.
##  8 East    Out   TotalSales2015   37307.
##  9 West    High  TotalSales2015 2944789.
## 10 West    Low   TotalSales2015  671064.
## # ... with 14 more rows
…
#question4
state_data <- SalesData %>%
  group_by(State)%>%
  filter(Region =="East")%>%
  summarise(TotalSales2015 = sum(Sales2015),TotalSales2016 = sum(Sales2016))

data_long2 <- gather(state_data,key=Year,value=Sales,-State)
data_long2

## # A tibble: 32 x 3
##    State Year              Sales
##    <chr> <chr>             <dbl>
##  1 CT    TotalSales2015  197203.
##  2 DC    TotalSales2015  216724.
##  3 FL    TotalSales2015 1660162 
##  4 GA    TotalSales2015  681546.
##  5 MA    TotalSales2015  419279.
##  6 MD    TotalSales2015  527309.
##  7 ME    TotalSales2015   77426.
##  8 NC    TotalSales2015 1292802.
##  9 NH    TotalSales2015  136419.
## 10 NJ    TotalSales2015  520419.
## # ... with 22 more rows
…
